EESchema Schematic File Version 4
EELAYER 26 0
EELAYER END
$Descr A4 11693 8268
encoding utf-8
Sheet 1 1
Title "Placa Controladora Hortas Urbanas Verticais"
Date "2018-02-28"
Rev ""
Comp "Hortas Urbanas Automatizadas"
Comment1 "Cristthian Marafigo Arpino"
Comment2 ""
Comment3 ""
Comment4 ""
$EndDescr
$EndSCHEMATC
